…
    ## # A tibble: 29 x 2
    ##    var   rel.inf
    ##  * <fct>   <dbl>
    ##  1 V14     68.0 
    ##  2 V4      10.2 
    ##  3 V11      6.33
    ##  4 V10      2.37
    ##  5 V19      1.49
    ##  6 V12      1.46
    ##  7 V17      1.17
    ##  8 V3       1.13
    ##  9 V18      1.12
    ## 10 V7       1.00
    ## # ... with 19 more rows
…
